C:\workspace-Antonio\ws_futbol-datos-api-rest_11\src\test\java\com\antoniopicalloguedes\restapi\repository\JugadorRepositoryTest.java
C:\workspace-Antonio\ws_futbol-datos-api-rest_11\src\test\java\com\antoniopicalloguedes\restapi\service\impl\EquipoServiceImplTest.java
C:\workspace-Antonio\ws_futbol-datos-api-rest_11\src\test\java\com\antoniopicalloguedes\restapi\service\impl\JugadorServiceImplTest.java
C:\workspace-Antonio\ws_futbol-datos-api-rest_11\src\test\java\com\antoniopicalloguedes\restapi\controller\EntrenadorControllerTest.java
C:\workspace-Antonio\ws_futbol-datos-api-rest_11\src\test\java\com\antoniopicalloguedes\restapi\controller\LigasFutbolControllerTest.java
C:\workspace-Antonio\ws_futbol-datos-api-rest_11\src\test\java\com\antoniopicalloguedes\restapi\repository\EquipoRepositoryTest.java
C:\workspace-Antonio\ws_futbol-datos-api-rest_11\src\test\java\com\antoniopicalloguedes\restapi\controller\EquipoFutbolControllerTest.java
C:\workspace-Antonio\ws_futbol-datos-api-rest_11\src\test\java\com\antoniopicalloguedes\restapi\service\impl\EntrenadorServiceImplTest.java
C:\workspace-Antonio\ws_futbol-datos-api-rest_11\src\test\java\com\antoniopicalloguedes\restapi\controller\JugadorControllerTest.java
C:\workspace-Antonio\ws_futbol-datos-api-rest_11\src\test\java\com\antoniopicalloguedes\restapi\RestApiApplicationTests.java
C:\workspace-Antonio\ws_futbol-datos-api-rest_11\src\test\java\com\antoniopicalloguedes\restapi\repository\EntrenadorRepositoryTest.java
C:\workspace-Antonio\ws_futbol-datos-api-rest_11\src\test\java\com\antoniopicalloguedes\restapi\repository\LigaRepositoryTest.java
C:\workspace-Antonio\ws_futbol-datos-api-rest_11\src\test\java\com\antoniopicalloguedes\restapi\service\impl\LigaServiceImplTest.java
